"","structure.c.1..NA..NA...0.148593507886211..0.569021050916915..","structure.c.1..NA..NA...0.336881041355868..0.662321302441196.."
"connectance",1,1
"compartment diversity",NA,NA
"nestedness",NA,NA
"weighted nestedness",-0.148593507886211,-0.336881041355868
"specialisation asymmetry",0.569021050916915,0.662321302441196
"Shannon diversity",5.38045702735714,5.0043837428286
"interaction evenness",0.723051386793105,0.655968172937483
"H2",0.0884375694375695,0.0551923086137661
"niche.overlap.HL",0.806562240420317,0.95489782078188
"niche.overlap.LL",0.601397900063384,0.722796592289486
"C.score.HL",NA,NA
"C.score.LL",NA,NA
"robustness.HL",0.968648165091334,0.968648165091334
"robustness.LL",0.997775782755506,0.998154631611237
"generality.HL",42.3029480687225,35.0998592787905
"vulnerability.LL",4.6298357269426,4.02992538182641
