"","lon","lat"
"1",4.3570677,52.0115769
"2",4.3570677,52.0115769
"3",5.4697225,51.441642
"4",4.8951679,52.3702157
"5",5.8372264,51.8125626
"6",5.1214201,52.0907374
"7",4.768323,51.5719149
"8",5.6653948,51.9691868
"9",4.8951679,52.3702157
"10",5.8372264,51.8125626
"11",4.4777326,51.9244201
"12",6.8936619,52.2215372
"13",4.8951679,52.3702157
"14",4.4777326,51.9244201
"15",6.1494821,62.4722284
"16",4.4970097,52.1601144
"17",6.8936619,52.2215372
"18",NA,NA
"19",5.6653948,51.9691868
"20",4.8951679,52.3702157
"21",4.4970097,52.1601144
"22",5.3036748,51.6978162
"23",12.5683372,55.6760968
"24",5.1214201,52.0907374
"25",6.5665017,53.2193835
"26",5.056375,51.5852528
"27",NA,NA
"28",4.4970097,52.1601144
"29",NA,NA
"30",5.6909725,50.8513682
"31",5.6909725,50.8513682
"32",4.8951679,52.3702157
"33",6.5665017,53.2193835
"34",NA,NA
"35",NA,NA
"36",4.8951679,52.3702157
"37",6.5642284,52.992753
"38",5.1214201,52.0907374
"39",4.4777326,51.9244201
"40",5.6909725,50.8513682
"41",4.3570677,52.0115769
"42",0.121817,52.205337
"43",NA,NA
"44",5.6653948,51.9691868
"45",NA,NA
"46",NA,NA
"47",NA,NA
"48",5.0013289,52.1710222
"49",5.8372264,51.8125626
"50",NA,NA
"51",6.3834136,51.8914526
"52",4.8951679,52.3702157
"53",6.5665017,53.2193835
"54",5.3878266,52.1561113
"55",-1.61778,54.978252
"56",4.8951679,52.3702157
"57",-0.1277583,51.5073509
"58",4.4777326,51.9244201
"59",4.8951679,52.3702157
"60",5.8987296,51.9851034
"61",4.7005176,50.8798438
"62",6.12954,51.786726
"63",5.6909725,50.8513682
"64",4.8951679,52.3702157
"65",NA,NA
"66",5.1214201,52.0907374
"67",5.4697225,51.441642
"68",3.7174243,51.0543422
"69",3.7174243,51.0543422
"70",5.7999133,53.2012334
"71",-1.519693,52.406822
"72",5.9794988,50.8881742
"73",10.3950528,63.4305149
"74",7.0982068,50.73743
"75",4.4024643,51.2194475
"76",4.4970097,52.1601144
"77",NA,NA
"78",4.8951679,52.3702157
"79",4.4970097,52.1601144
"80",5.1214201,52.0907374
"81",NA,NA
"82",6.0830219,52.5167747
"83",4.8951679,52.3702157
"84",5.6909725,50.8513682
"85",4.4777326,51.9244201
"86",NA,NA
"87",151.2092955,-33.8688197
"88",NA,NA
"89",4.99084,51.16257
"90",5.1214201,52.0907374
"91",13.7372621,51.0504088
"92",6.7734556,51.2277411
"93",4.6118324,50.668081
"94",NA,NA
"95",4.8951679,52.3702157
"96",103.819836,1.352083
"97",4.4777326,51.9244201
"98",NA,NA
"99",5.8987296,51.9851034
"100",4.3219738,52.0376977
"101",5.1214201,52.0907374
"102",4.3570677,52.0115769
"103",5.8372264,51.8125626
"104",4.8951679,52.3702157
"105",13.7372621,51.0504088
"106",5.056375,51.5852528
"107",5.7999133,53.2012334
"108",3.5709125,51.4536672
